{"href":"https://api.spotify.com/v1/users/spotify/playlists/5UqllVe1ZknYIoptNFRueU/tracks?offset=0&limit=2","items":[{"added_at":"2017-01-15T20:45:55Z","added_by":{"external_urls":{"spotify":"http://open.spotify.com/user/spotify"},"href":"https://api.spotify.com/v1/users/spotify","id":"spotify","type":"user","uri":"spotify:user:spotify"},"is_local":false,"track":{"album":{"album_type":"single","artists":[{"external_urls":{"spotify":"https://open.spotify.com/artist/1Xyo4u8uXC1ZmMpatF05PJ"},"href":"https://api.spotify.com/v1/artists/1Xyo4u8uXC1ZmMpatF05PJ","id":"1Xyo4u8uXC1ZmMpatF05PJ","name":"The Weeknd","type":"artist","uri":"spotify:artist:1Xyo4u8uXC1ZmMpatF05PJ"}],"available_markets":[],"external_urls":{"spotify":"https://open.spotify.com/album/4rnl39iMQXOYZcw9J7ml4y"},"href":"https://api.spotify.com/v1/albums/4rnl39iMQXOYZcw9J7ml4y","id":"4rnl39iMQXOYZcw9J7ml4y","images":[{"height":640,"url":"https://i.scdn.co/image/f9e8138349e079a4efaeec658957cd84d38807ea","width":640},{"height":300,"url":"https://i.scdn.co/image/aa3fff15d28124588672a060a970db5116b82b9a","width":300},{"height":64,"url":"https://i.scdn.co/image/e6ae5b37ac76678a7474678577de64e64dbe2147","width":64}],"name":"Starboy","type":"album","uri":"spotify:album:4rnl39iMQXOYZcw9J7ml4y"},"artists":[{"external_urls":{"spotify":"https://open.spotify.com/artist/1Xyo4u8uXC1ZmMpatF05PJ"},"href":"https://api.spotify.com/v1/artists/1Xyo4u8uXC1ZmMpatF05PJ","id":"1Xyo4u8uXC1ZmMpatF05PJ","name":"The Weeknd","type":"artist","uri":"spotify:artist:1Xyo4u8uXC1ZmMpatF05PJ"},{"external_urls":{"spotify":"https://open.spotify.com/artist/4tZwfgrHOc3mvqYlEYSvVi"},"href":"https://api.spotify.com/v1/artists/4tZwfgrHOc3mvqYlEYSvVi","id":"4tZwfgrHOc3mvqYlEYSvVi","name":"Daft Punk","type":"artist","uri":"spotify:artist:4tZwfgrHOc3mvqYlEYSvVi"}],"available_markets":[],"disc_number":1,"duration_ms":230466,"explicit":true,"external_ids":{"isrc":"USUG11600976"},"external_urls":{"spotify":"https://open.spotify.com/track/7lQqaqZu0vjxzpdATOIsDt"},"href":"https://api.spotify.com/v1/tracks/7lQqaqZu0vjxzpdATOIsDt","id":"7lQqaqZu0vjxzpdATOIsDt","name":"Starboy","popularity":75,"preview_url":null,"track_number":1,"type":"track","uri":"spotify:track:7lQqaqZu0vjxzpdATOIsDt"}},{"added_at":"2017-01-15T20:45:55Z","added_by":{"external_urls":{"spotify":"http://open.spotify.com/user/spotify"},"href":"https://api.spotify.com/v1/users/spotify","id":"spotify","type":"user","uri":"spotify:user:spotify"},"is_local":false,"track":{"album":{"album_type":"album","artists":[{"external_urls":{"spotify":"https://open.spotify.com/artist/4tZwfgrHOc3mvqYlEYSvVi"},"href":"https://api.spotify.com/v1/artists/4tZwfgrHOc3mvqYlEYSvVi","id":"4tZwfgrHOc3mvqYlEYSvVi","name":"Daft Punk","type":"artist","uri":"spotify:artist:4tZwfgrHOc3mvqYlEYSvVi"}],"available_markets":["AD","AR","AT","AU","BE","BG","BO","BR","CA","CH","CL","CO","CR","CY","CZ","DE","DK","DO","EC","EE","ES","FI","FR","GB","GR","GT","HK","HN","HU","ID","IE","IS","IT","JP","LI","LT","LU","LV","MC","MT","MX","MY","NI","NL","NO","NZ","PA","PE","PH","PL","PT","PY","SE","SG","SK","SV","TR","TW","US","UY"],"external_urls":{"spotify":"https://open.spotify.com/album/2noRn2Aes5aoNVsU6iWThc"},"href":"https://api.spotify.com/v1/albums/2noRn2Aes5aoNVsU6iWThc","id":"2noRn2Aes5aoNVsU6iWThc","images":[{"height":640,"url":"https://i.scdn.co/image/1a9dab25976c706fffccb6bf2cf8a6f5eadd0d29","width":640},{"height":300,"url":"https://i.scdn.co/image/f04bb6fba32e89475d9981007aff21e13745dec2","width":300},{"height":64,"url":"https://i.scdn.co/image/285c50b8d12090ce411acf5eba9cca721a4a1c0a","width":64}],"name":"Discovery","type":"album","uri":"spotify:album:2noRn2Aes5aoNVsU6iWThc"},"artists":[{"external_urls":{"spotify":"https://open.spotify.com/artist/4tZwfgrHOc3mvqYlEYSvVi"},"href":"https://api.spotify.com/v1/artists/4tZwfgrHOc3mvqYlEYSvVi","id":"4tZwfgrHOc3mvqYlEYSvVi","name":"Daft Punk","type":"artist","uri":"spotify:artist:4tZwfgrHOc3mvqYlEYSvVi"}],"available_markets":["AD","AR","AT","AU","BE","BG","BO","BR","CA","CH","CL","CO","CR","CY","CZ","DE","DK","DO","EC","EE","ES","FI","FR","GB","GR","GT","HK","HN","HU","ID","IE","IS","IT","JP","LI","LT","LU","LV","MC","MT","MX","MY","NI","NL","NO","NZ","PA","PE","PH","PL","PT","PY","SE","SG","SK","SV","TR","TW","US","UY"],"disc_number":1,"duration_ms":320357,"explicit":false,"external_ids":{"isrc":"GBDUW0000053"},"external_urls":{"spotify":"https://open.spotify.com/track/0DiWol3AO6WpXZgp0goxAV"},"href":"https://api.spotify.com/v1/tracks/0DiWol3AO6WpXZgp0goxAV","id":"0DiWol3AO6WpXZgp0goxAV","name":"One More Time","popularity":72,"preview_url":"https://p.scdn.co/mp3-preview/c27897e8eb4c0910e052c9beb6711432f3630879?cid=8897482848704f2a8f8d7c79726a70d4","track_number":1,"type":"track","uri":"spotify:track:0DiWol3AO6WpXZgp0goxAV"}}],"limit":2,"next":"https://api.spotify.com/v1/users/spotify/playlists/5UqllVe1ZknYIoptNFRueU/tracks?offset=2&limit=2","offset":0,"previous":null,"total":26}