{"items":[{"album":{"album_type":"ALBUM","external_urls":{"spotify":"https://open.spotify.com/album/1NfrmcXk8xNennyxQ57JcW"},"href":"https://api.spotify.com/v1/albums/1NfrmcXk8xNennyxQ57JcW","id":"1NfrmcXk8xNennyxQ57JcW","images":[{"height":636,"url":"https://i.scdn.co/image/70d5d04703139de6ea3d708a489f8ffdb25855e0","width":640},{"height":298,"url":"https://i.scdn.co/image/40d7591f750690e0b18ba7516462c4f2556a78ad","width":300},{"height":64,"url":"https://i.scdn.co/image/12c3fd510c51303af8299090d997e56f6dce69d6","width":64}],"name":"Born Sinner","type":"album","uri":"spotify:album:1NfrmcXk8xNennyxQ57JcW"},"artists":[{"external_urls":{"spotify":"https://open.spotify.com/artist/6l3HvQ5sa6mXTsMTB19rO5"},"href":"https://api.spotify.com/v1/artists/6l3HvQ5sa6mXTsMTB19rO5","id":"6l3HvQ5sa6mXTsMTB19rO5","name":"J. Cole","type":"artist","uri":"spotify:artist:6l3HvQ5sa6mXTsMTB19rO5"}],"disc_number":1,"duration_ms":276093,"explicit":true,"external_ids":{"isrc":"USQX91301185"},"external_urls":{"spotify":"https://open.spotify.com/track/0QpYkajexWrB0P3TWvkHlm"},"href":"https://api.spotify.com/v1/tracks/0QpYkajexWrB0P3TWvkHlm","id":"0QpYkajexWrB0P3TWvkHlm","is_playable":true,"name":"Rich Niggaz","popularity":65,"preview_url":"https://p.scdn.co/mp3-preview/ab19db978425eca10e974967196205262c055ca8","track_number":9,"type":"track","uri":"spotify:track:0QpYkajexWrB0P3TWvkHlm"},{"album":{"album_type":"ALBUM","external_urls":{"spotify":"https://open.spotify.com/album/63McpWDS7P0dF06fqXQMCZ"},"href":"https://api.spotify.com/v1/albums/63McpWDS7P0dF06fqXQMCZ","id":"63McpWDS7P0dF06fqXQMCZ","images":[{"height":640,"url":"https://i.scdn.co/image/e8105905a27688a772428088e347ff3eeab59fa1","width":640},{"height":300,"url":"https://i.scdn.co/image/c406fe8d4c9599deee71039921debbdcf97614e0","width":300},{"height":64,"url":"https://i.scdn.co/image/b6535e09db1da4394ee54930e9ce8bf8732a0096","width":64}],"name":"because the internet","type":"album","uri":"spotify:album:63McpWDS7P0dF06fqXQMCZ"},"artists":[{"external_urls":{"spotify":"https://open.spotify.com/artist/73sIBHcqh3Z3NyqHKZ7FOL"},"href":"https://api.spotify.com/v1/artists/73sIBHcqh3Z3NyqHKZ7FOL","id":"73sIBHcqh3Z3NyqHKZ7FOL","name":"Childish Gambino","type":"artist","uri":"spotify:artist:73sIBHcqh3Z3NyqHKZ7FOL"}],"disc_number":1,"duration_ms":290705,"explicit":true,"external_ids":{"isrc":"USYAH1300230"},"external_urls":{"spotify":"https://open.spotify.com/track/0BU5tA7Iw8NABambhP0u9N"},"href":"https://api.spotify.com/v1/tracks/0BU5tA7Iw8NABambhP0u9N","id":"0BU5tA7Iw8NABambhP0u9N","is_playable":true,"name":"II. zealots of stockholm [free information]","popularity":54,"preview_url":"https://p.scdn.co/mp3-preview/e328f30e538064127f62cb0741276b3de0830938","track_number":15,"type":"track","uri":"spotify:track:0BU5tA7Iw8NABambhP0u9N"},{"album":{"album_type":"ALBUM","external_urls":{"spotify":"https://open.spotify.com/album/25L1Rvy2hFux3UuQymKxvN"},"href":"https://api.spotify.com/v1/albums/25L1Rvy2hFux3UuQymKxvN","id":"25L1Rvy2hFux3UuQymKxvN","images":[{"height":640,"url":"https://i.scdn.co/image/ce470d7150c146fd3f311dd06886788077b148ca","width":640},{"height":300,"url":"https://i.scdn.co/image/429f586a9b846bff2d3c2712cb026772ad8c807c","width":300},{"height":64,"url":"https://i.scdn.co/image/86b080ba3d3ee21e227f722972730b0f59547c9b","width":64}],"name":"Camp","type":"album","uri":"spotify:album:25L1Rvy2hFux3UuQymKxvN"},"artists":[{"external_urls":{"spotify":"https://open.spotify.com/artist/73sIBHcqh3Z3NyqHKZ7FOL"},"href":"https://api.spotify.com/v1/artists/73sIBHcqh3Z3NyqHKZ7FOL","id":"73sIBHcqh3Z3NyqHKZ7FOL","name":"Childish Gambino","type":"artist","uri":"spotify:artist:73sIBHcqh3Z3NyqHKZ7FOL"}],"disc_number":1,"duration_ms":297933,"explicit":true,"external_ids":{"isrc":"USYAH1100355"},"external_urls":{"spotify":"https://open.spotify.com/track/1lmGMDIV4I32AlIbI4LbCS"},"href":"https://api.spotify.com/v1/tracks/1lmGMDIV4I32AlIbI4LbCS","id":"1lmGMDIV4I32AlIbI4LbCS","is_playable":true,"name":"Kids","popularity":33,"preview_url":"https://p.scdn.co/mp3-preview/e7acb44d8ca02487bae5cf6bd432f7aaf8b945db","track_number":10,"type":"track","uri":"spotify:track:1lmGMDIV4I32AlIbI4LbCS"},{"album":{"album_type":"ALBUM","external_urls":{"spotify":"https://open.spotify.com/album/7viNUmZZ8ztn2UB4XB3jIL"},"href":"https://api.spotify.com/v1/albums/7viNUmZZ8ztn2UB4XB3jIL","id":"7viNUmZZ8ztn2UB4XB3jIL","images":[{"height":640,"url":"https://i.scdn.co/image/9c5d0ed04c5d5ca1fb3027cdc860698c89da4942","width":640},{"height":300,"url":"https://i.scdn.co/image/176606ea8b00ee668e47de155c95a6fc1418bad6","width":300},{"height":64,"url":"https://i.scdn.co/image/cdae307053d659a38434177323ea03902ac8b0dc","width":64}],"name":"2014 Forest Hills Drive","type":"album","uri":"spotify:album:7viNUmZZ8ztn2UB4XB3jIL"},"artists":[{"external_urls":{"spotify":"https://open.spotify.com/artist/6l3HvQ5sa6mXTsMTB19rO5"},"href":"https://api.spotify.com/v1/artists/6l3HvQ5sa6mXTsMTB19rO5","id":"6l3HvQ5sa6mXTsMTB19rO5","name":"J. Cole","type":"artist","uri":"spotify:artist:6l3HvQ5sa6mXTsMTB19rO5"}],"disc_number":1,"duration_ms":301133,"explicit":true,"external_ids":{"isrc":"USQX91402597"},"external_urls":{"spotify":"https://open.spotify.com/track/16qYlQ6koFxYVbiJbGHblz"},"href":"https://api.spotify.com/v1/tracks/16qYlQ6koFxYVbiJbGHblz","id":"16qYlQ6koFxYVbiJbGHblz","is_playable":true,"name":"G.O.M.D.","popularity":76,"preview_url":"https://p.scdn.co/mp3-preview/87bb65bfbf96bb17b16e43e9d178fe40fde21df9","track_number":8,"type":"track","uri":"spotify:track:16qYlQ6koFxYVbiJbGHblz"},{"album":{"album_type":"ALBUM","external_urls":{"spotify":"https://open.spotify.com/album/63McpWDS7P0dF06fqXQMCZ"},"href":"https://api.spotify.com/v1/albums/63McpWDS7P0dF06fqXQMCZ","id":"63McpWDS7P0dF06fqXQMCZ","images":[{"height":640,"url":"https://i.scdn.co/image/e8105905a27688a772428088e347ff3eeab59fa1","width":640},{"height":300,"url":"https://i.scdn.co/image/c406fe8d4c9599deee71039921debbdcf97614e0","width":300},{"height":64,"url":"https://i.scdn.co/image/b6535e09db1da4394ee54930e9ce8bf8732a0096","width":64}],"name":"because the internet","type":"album","uri":"spotify:album:63McpWDS7P0dF06fqXQMCZ"},"artists":[{"external_urls":{"spotify":"https://open.spotify.com/artist/73sIBHcqh3Z3NyqHKZ7FOL"},"href":"https://api.spotify.com/v1/artists/73sIBHcqh3Z3NyqHKZ7FOL","id":"73sIBHcqh3Z3NyqHKZ7FOL","name":"Childish Gambino","type":"artist","uri":"spotify:artist:73sIBHcqh3Z3NyqHKZ7FOL"}],"disc_number":1,"duration_ms":91292,"explicit":true,"external_ids":{"isrc":"USYAH1300226"},"external_urls":{"spotify":"https://open.spotify.com/track/6hq9bclZdXhlHx3wfPmb4i"},"href":"https://api.spotify.com/v1/tracks/6hq9bclZdXhlHx3wfPmb4i","id":"6hq9bclZdXhlHx3wfPmb4i","is_playable":true,"name":"I. the party","popularity":47,"preview_url":"https://p.scdn.co/mp3-preview/71fad34dcc0bbea8487b3176c74a379e03d8b58e","track_number":11,"type":"track","uri":"spotify:track:6hq9bclZdXhlHx3wfPmb4i"},{"album":{"album_type":"ALBUM","external_urls":{"spotify":"https://open.spotify.com/album/5M31iLPzYuYxkpSO5tBOMN"},"href":"https://api.spotify.com/v1/albums/5M31iLPzYuYxkpSO5tBOMN","id":"5M31iLPzYuYxkpSO5tBOMN","images":[{"height":640,"url":"https://i.scdn.co/image/4d70d62e96630009e8f05c4b52a4fd3d03d0fb50","width":640},{"height":300,"url":"https://i.scdn.co/image/0d40e9c9afb499719eb00694b2acedac80117e46","width":300},{"height":64,"url":"https://i.scdn.co/image/ed8b34976ba3df2b0ba47357384e856aacaeb4a6","width":64}],"name":"HERE","type":"album","uri":"spotify:album:5M31iLPzYuYxkpSO5tBOMN"},"artists":[{"external_urls":{"spotify":"https://open.spotify.com/artist/3DiDSECUqqY1AuBP8qtaIa"},"href":"https://api.spotify.com/v1/artists/3DiDSECUqqY1AuBP8qtaIa","id":"3DiDSECUqqY1AuBP8qtaIa","name":"Alicia Keys","type":"artist","uri":"spotify:artist:3DiDSECUqqY1AuBP8qtaIa"}],"disc_number":1,"duration_ms":209120,"explicit":false,"external_ids":{"isrc":"USRC11600912"},"external_urls":{"spotify":"https://open.spotify.com/track/2y292SsIKqyBnII5TZuhv7"},"href":"https://api.spotify.com/v1/tracks/2y292SsIKqyBnII5TZuhv7","id":"2y292SsIKqyBnII5TZuhv7","is_playable":true,"name":"In Common","popularity":58,"preview_url":"https://p.scdn.co/mp3-preview/d262bf3e9e0a16dad3e1d223871033a7d70267ae","track_number":18,"type":"track","uri":"spotify:track:2y292SsIKqyBnII5TZuhv7"},{"album":{"album_type":"ALBUM","external_urls":{"spotify":"https://open.spotify.com/album/25L1Rvy2hFux3UuQymKxvN"},"href":"https://api.spotify.com/v1/albums/25L1Rvy2hFux3UuQymKxvN","id":"25L1Rvy2hFux3UuQymKxvN","images":[{"height":640,"url":"https://i.scdn.co/image/ce470d7150c146fd3f311dd06886788077b148ca","width":640},{"height":300,"url":"https://i.scdn.co/image/429f586a9b846bff2d3c2712cb026772ad8c807c","width":300},{"height":64,"url":"https://i.scdn.co/image/86b080ba3d3ee21e227f722972730b0f59547c9b","width":64}],"name":"Camp","type":"album","uri":"spotify:album:25L1Rvy2hFux3UuQymKxvN"},"artists":[{"external_urls":{"spotify":"https://open.spotify.com/artist/73sIBHcqh3Z3NyqHKZ7FOL"},"href":"https://api.spotify.com/v1/artists/73sIBHcqh3Z3NyqHKZ7FOL","id":"73sIBHcqh3Z3NyqHKZ7FOL","name":"Childish Gambino","type":"artist","uri":"spotify:artist:73sIBHcqh3Z3NyqHKZ7FOL"}],"disc_number":1,"duration_ms":104386,"explicit":true,"external_ids":{"isrc":"USYAH1100350"},"external_urls":{"spotify":"https://open.spotify.com/track/5pFfOtXtINzNk47MszPEzk"},"href":"https://api.spotify.com/v1/tracks/5pFfOtXtINzNk47MszPEzk","id":"5pFfOtXtINzNk47MszPEzk","is_playable":true,"name":"Letter Home","popularity":32,"preview_url":"https://p.scdn.co/mp3-preview/8ea7a498021ed585de0900b77ff305b668c2ea2f","track_number":5,"type":"track","uri":"spotify:track:5pFfOtXtINzNk47MszPEzk"},{"album":{"album_type":"ALBUM","external_urls":{"spotify":"https://open.spotify.com/album/63McpWDS7P0dF06fqXQMCZ"},"href":"https://api.spotify.com/v1/albums/63McpWDS7P0dF06fqXQMCZ","id":"63McpWDS7P0dF06fqXQMCZ","images":[{"height":640,"url":"https://i.scdn.co/image/e8105905a27688a772428088e347ff3eeab59fa1","width":640},{"height":300,"url":"https://i.scdn.co/image/c406fe8d4c9599deee71039921debbdcf97614e0","width":300},{"height":64,"url":"https://i.scdn.co/image/b6535e09db1da4394ee54930e9ce8bf8732a0096","width":64}],"name":"because the internet","type":"album","uri":"spotify:album:63McpWDS7P0dF06fqXQMCZ"},"artists":[{"external_urls":{"spotify":"https://open.spotify.com/artist/73sIBHcqh3Z3NyqHKZ7FOL"},"href":"https://api.spotify.com/v1/artists/73sIBHcqh3Z3NyqHKZ7FOL","id":"73sIBHcqh3Z3NyqHKZ7FOL","name":"Childish Gambino","type":"artist","uri":"spotify:artist:73sIBHcqh3Z3NyqHKZ7FOL"}],"disc_number":1,"duration_ms":209473,"explicit":true,"external_ids":{"isrc":"USYAH1300217"},"external_urls":{"spotify":"https://open.spotify.com/track/4im75rKfAPOI3osofmhXl5"},"href":"https://api.spotify.com/v1/tracks/4im75rKfAPOI3osofmhXl5","id":"4im75rKfAPOI3osofmhXl5","is_playable":true,"name":"I. crawl","popularity":51,"preview_url":"https://p.scdn.co/mp3-preview/54c2157d947f7bbd107606b1d72684c5a41b2d40","track_number":2,"type":"track","uri":"spotify:track:4im75rKfAPOI3osofmhXl5"},{"album":{"album_type":"ALBUM","external_urls":{"spotify":"https://open.spotify.com/album/63McpWDS7P0dF06fqXQMCZ"},"href":"https://api.spotify.com/v1/albums/63McpWDS7P0dF06fqXQMCZ","id":"63McpWDS7P0dF06fqXQMCZ","images":[{"height":640,"url":"https://i.scdn.co/image/e8105905a27688a772428088e347ff3eeab59fa1","width":640},{"height":300,"url":"https://i.scdn.co/image/c406fe8d4c9599deee71039921debbdcf97614e0","width":300},{"height":64,"url":"https://i.scdn.co/image/b6535e09db1da4394ee54930e9ce8bf8732a0096","width":64}],"name":"because the internet","type":"album","uri":"spotify:album:63McpWDS7P0dF06fqXQMCZ"},"artists":[{"external_urls":{"spotify":"https://open.spotify.com/artist/73sIBHcqh3Z3NyqHKZ7FOL"},"href":"https://api.spotify.com/v1/artists/73sIBHcqh3Z3NyqHKZ7FOL","id":"73sIBHcqh3Z3NyqHKZ7FOL","name":"Childish Gambino","type":"artist","uri":"spotify:artist:73sIBHcqh3Z3NyqHKZ7FOL"}],"disc_number":1,"duration_ms":244651,"explicit":true,"external_ids":{"isrc":"USYAH1300218"},"external_urls":{"spotify":"https://open.spotify.com/track/23uWgO8PvL3wvtjbrHDWwT"},"href":"https://api.spotify.com/v1/tracks/23uWgO8PvL3wvtjbrHDWwT","id":"23uWgO8PvL3wvtjbrHDWwT","is_playable":true,"name":"II. WORLDSTAR","popularity":53,"preview_url":"https://p.scdn.co/mp3-preview/37517e0653d53500e796c9dacdb69ad91fccda76","track_number":3,"type":"track","uri":"spotify:track:23uWgO8PvL3wvtjbrHDWwT"},{"album":{"album_type":"ALBUM","external_urls":{"spotify":"https://open.spotify.com/album/63McpWDS7P0dF06fqXQMCZ"},"href":"https://api.spotify.com/v1/albums/63McpWDS7P0dF06fqXQMCZ","id":"63McpWDS7P0dF06fqXQMCZ","images":[{"height":640,"url":"https://i.scdn.co/image/e8105905a27688a772428088e347ff3eeab59fa1","width":640},{"height":300,"url":"https://i.scdn.co/image/c406fe8d4c9599deee71039921debbdcf97614e0","width":300},{"height":64,"url":"https://i.scdn.co/image/b6535e09db1da4394ee54930e9ce8bf8732a0096","width":64}],"name":"because the internet","type":"album","uri":"spotify:album:63McpWDS7P0dF06fqXQMCZ"},"artists":[{"external_urls":{"spotify":"https://open.spotify.com/artist/73sIBHcqh3Z3NyqHKZ7FOL"},"href":"https://api.spotify.com/v1/artists/73sIBHcqh3Z3NyqHKZ7FOL","id":"73sIBHcqh3Z3NyqHKZ7FOL","name":"Childish Gambino","type":"artist","uri":"spotify:artist:73sIBHcqh3Z3NyqHKZ7FOL"}],"disc_number":1,"duration_ms":180675,"explicit":true,"external_ids":{"isrc":"USYAH1300223"},"external_urls":{"spotify":"https://open.spotify.com/track/0uMUvbkTdjBNZ5UuHZ5PIj"},"href":"https://api.spotify.com/v1/tracks/0uMUvbkTdjBNZ5UuHZ5PIj","id":"0uMUvbkTdjBNZ5UuHZ5PIj","is_playable":true,"name":"IV. sweatpants","popularity":63,"preview_url":"https://p.scdn.co/mp3-preview/289e4bb29830d767d667e0c200e9949d694fbbbe","track_number":8,"type":"track","uri":"spotify:track:0uMUvbkTdjBNZ5UuHZ5PIj"},{"album":{"album_type":"ALBUM","external_urls":{"spotify":"https://open.spotify.com/album/3tlDQco8P9HFoR5CRC1BCj"},"href":"https://api.spotify.com/v1/albums/3tlDQco8P9HFoR5CRC1BCj","id":"3tlDQco8P9HFoR5CRC1BCj","images":[{"height":640,"url":"https://i.scdn.co/image/81963c865ffc29e39b6a1029cfc8f0fee492c9f0","width":640},{"height":300,"url":"https://i.scdn.co/image/86f5f3e7d83b40c17788f7a3e7d0aee1aac84851","width":300},{"height":64,"url":"https://i.scdn.co/image/f794510ef2cc0d200b63b5d5f49963d4544f737a","width":64}],"name":"And After That, We Didn't Talk","type":"album","uri":"spotify:album:3tlDQco8P9HFoR5CRC1BCj"},"artists":[{"external_urls":{"spotify":"https://open.spotify.com/artist/5XenQ7XfcvQdfIbpLEFaKQ"},"href":"https://api.spotify.com/v1/artists/5XenQ7XfcvQdfIbpLEFaKQ","id":"5XenQ7XfcvQdfIbpLEFaKQ","name":"GoldLink","type":"artist","uri":"spotify:artist:5XenQ7XfcvQdfIbpLEFaKQ"},{"external_urls":{"spotify":"https://open.spotify.com/artist/3ycxRkcZ67ALN3GQJ57Vig"},"href":"https://api.spotify.com/v1/artists/3ycxRkcZ67ALN3GQJ57Vig","id":"3ycxRkcZ67ALN3GQJ57Vig","name":"Masego","type":"artist","uri":"spotify:artist:3ycxRkcZ67ALN3GQJ57Vig"}],"disc_number":1,"duration_ms":161080,"explicit":true,"external_ids":{"isrc":"USRC11502539"},"external_urls":{"spotify":"https://open.spotify.com/track/60ZZNXIdwgUGkVGRt7foLT"},"href":"https://api.spotify.com/v1/tracks/60ZZNXIdwgUGkVGRt7foLT","id":"60ZZNXIdwgUGkVGRt7foLT","is_playable":true,"name":"Late Night","popularity":63,"preview_url":"https://p.scdn.co/mp3-preview/eb451d71a044dec231078277b5a93f9fceca204f","track_number":6,"type":"track","uri":"spotify:track:60ZZNXIdwgUGkVGRt7foLT"},{"album":{"album_type":"ALBUM","external_urls":{"spotify":"https://open.spotify.com/album/25L1Rvy2hFux3UuQymKxvN"},"href":"https://api.spotify.com/v1/albums/25L1Rvy2hFux3UuQymKxvN","id":"25L1Rvy2hFux3UuQymKxvN","images":[{"height":640,"url":"https://i.scdn.co/image/ce470d7150c146fd3f311dd06886788077b148ca","width":640},{"height":300,"url":"https://i.scdn.co/image/429f586a9b846bff2d3c2712cb026772ad8c807c","width":300},{"height":64,"url":"https://i.scdn.co/image/86b080ba3d3ee21e227f722972730b0f59547c9b","width":64}],"name":"Camp","type":"album","uri":"spotify:album:25L1Rvy2hFux3UuQymKxvN"},"artists":[{"external_urls":{"spotify":"https://open.spotify.com/artist/73sIBHcqh3Z3NyqHKZ7FOL"},"href":"https://api.spotify.com/v1/artists/73sIBHcqh3Z3NyqHKZ7FOL","id":"73sIBHcqh3Z3NyqHKZ7FOL","name":"Childish Gambino","type":"artist","uri":"spotify:artist:73sIBHcqh3Z3NyqHKZ7FOL"}],"disc_number":1,"duration_ms":318786,"explicit":true,"external_ids":{"isrc":"USYAH1100353"},"external_urls":{"spotify":"https://open.spotify.com/track/2oICGBhIgHl7sGzHUNyNBr"},"href":"https://api.spotify.com/v1/tracks/2oICGBhIgHl7sGzHUNyNBr","id":"2oICGBhIgHl7sGzHUNyNBr","is_playable":true,"name":"L.E.S","popularity":36,"preview_url":"https://p.scdn.co/mp3-preview/de11dad9c87e13653b19562287a7bba0bcf32713","track_number":8,"type":"track","uri":"spotify:track:2oICGBhIgHl7sGzHUNyNBr"},{"album":{"album_type":"ALBUM","external_urls":{"spotify":"https://open.spotify.com/album/63McpWDS7P0dF06fqXQMCZ"},"href":"https://api.spotify.com/v1/albums/63McpWDS7P0dF06fqXQMCZ","id":"63McpWDS7P0dF06fqXQMCZ","images":[{"height":640,"url":"https://i.scdn.co/image/e8105905a27688a772428088e347ff3eeab59fa1","width":640},{"height":300,"url":"https://i.scdn.co/image/c406fe8d4c9599deee71039921debbdcf97614e0","width":300},{"height":64,"url":"https://i.scdn.co/image/b6535e09db1da4394ee54930e9ce8bf8732a0096","width":64}],"name":"because the internet","type":"album","uri":"spotify:album:63McpWDS7P0dF06fqXQMCZ"},"artists":[{"external_urls":{"spotify":"https://open.spotify.com/artist/73sIBHcqh3Z3NyqHKZ7FOL"},"href":"https://api.spotify.com/v1/artists/73sIBHcqh3Z3NyqHKZ7FOL","id":"73sIBHcqh3Z3NyqHKZ7FOL","name":"Childish Gambino","type":"artist","uri":"spotify:artist:73sIBHcqh3Z3NyqHKZ7FOL"}],"disc_number":1,"duration_ms":234215,"explicit":true,"external_ids":{"isrc":"USYAH1300224"},"external_urls":{"spotify":"https://open.spotify.com/track/7wwifjNAb172PtDpKK3CoR"},"href":"https://api.spotify.com/v1/tracks/7wwifjNAb172PtDpKK3CoR","id":"7wwifjNAb172PtDpKK3CoR","is_playable":true,"name":"V. 3005","popularity":67,"preview_url":"https://p.scdn.co/mp3-preview/aa787d9b2bb9d244e1525268fbb948fe65bd52f9","track_number":9,"type":"track","uri":"spotify:track:7wwifjNAb172PtDpKK3CoR"},{"album":{"album_type":"ALBUM","external_urls":{"spotify":"https://open.spotify.com/album/3zXR5GOXPq0Uc7tWC9fO3X"},"href":"https://api.spotify.com/v1/albums/3zXR5GOXPq0Uc7tWC9fO3X","id":"3zXR5GOXPq0Uc7tWC9fO3X","images":[{"height":640,"url":"https://i.scdn.co/image/f3af4fed8c211a1392b4863e1eac2383ada7239f","width":640},{"height":300,"url":"https://i.scdn.co/image/97dd32c498045b744e466023e52c519c93238657","width":300},{"height":64,"url":"https://i.scdn.co/image/3d0905a35778654215ec135cee684e262b9940c4","width":64}],"name":"Skin","type":"album","uri":"spotify:album:3zXR5GOXPq0Uc7tWC9fO3X"},"artists":[{"external_urls":{"spotify":"https://open.spotify.com/artist/6nxWCVXbOlEVRexSbLsTer"},"href":"https://api.spotify.com/v1/artists/6nxWCVXbOlEVRexSbLsTer","id":"6nxWCVXbOlEVRexSbLsTer","name":"Flume","type":"artist","uri":"spotify:artist:6nxWCVXbOlEVRexSbLsTer"},{"external_urls":{"spotify":"https://open.spotify.com/artist/6Tyzp9KzpiZ04DABQoedps"},"href":"https://api.spotify.com/v1/artists/6Tyzp9KzpiZ04DABQoedps","id":"6Tyzp9KzpiZ04DABQoedps","name":"Little Dragon","type":"artist","uri":"spotify:artist:6Tyzp9KzpiZ04DABQoedps"}],"disc_number":1,"duration_ms":328630,"explicit":false,"external_ids":{"isrc":"AUFF01600805"},"external_urls":{"spotify":"https://open.spotify.com/track/1Mmp2ZWXqp7MbA7pgNZNSO"},"href":"https://api.spotify.com/v1/tracks/1Mmp2ZWXqp7MbA7pgNZNSO","id":"1Mmp2ZWXqp7MbA7pgNZNSO","is_playable":true,"name":"Take A Chance","popularity":49,"preview_url":"https://p.scdn.co/mp3-preview/9ddbe389c3c0269e709bcda5114ec82c9c309f0b","track_number":12,"type":"track","uri":"spotify:track:1Mmp2ZWXqp7MbA7pgNZNSO"},{"album":{"album_type":"ALBUM","external_urls":{"spotify":"https://open.spotify.com/album/1NfrmcXk8xNennyxQ57JcW"},"href":"https://api.spotify.com/v1/albums/1NfrmcXk8xNennyxQ57JcW","id":"1NfrmcXk8xNennyxQ57JcW","images":[{"height":636,"url":"https://i.scdn.co/image/70d5d04703139de6ea3d708a489f8ffdb25855e0","width":640},{"height":298,"url":"https://i.scdn.co/image/40d7591f750690e0b18ba7516462c4f2556a78ad","width":300},{"height":64,"url":"https://i.scdn.co/image/12c3fd510c51303af8299090d997e56f6dce69d6","width":64}],"name":"Born Sinner","type":"album","uri":"spotify:album:1NfrmcXk8xNennyxQ57JcW"},"artists":[{"external_urls":{"spotify":"https://open.spotify.com/artist/6l3HvQ5sa6mXTsMTB19rO5"},"href":"https://api.spotify.com/v1/artists/6l3HvQ5sa6mXTsMTB19rO5","id":"6l3HvQ5sa6mXTsMTB19rO5","name":"J. Cole","type":"artist","uri":"spotify:artist:6l3HvQ5sa6mXTsMTB19rO5"},{"external_urls":{"spotify":"https://open.spotify.com/artist/5ooSG9S0glqP5ZrqqaHBvT"},"href":"https://api.spotify.com/v1/artists/5ooSG9S0glqP5ZrqqaHBvT","id":"5ooSG9S0glqP5ZrqqaHBvT","name":"James Fauntleroy","type":"artist","uri":"spotify:artist:5ooSG9S0glqP5ZrqqaHBvT"}],"disc_number":1,"duration_ms":209360,"explicit":true,"external_ids":{"isrc":"USQX91301192"},"external_urls":{"spotify":"https://open.spotify.com/track/2wQVmS0j4xcSbEK8CLEgwz"},"href":"https://api.spotify.com/v1/tracks/2wQVmS0j4xcSbEK8CLEgwz","id":"2wQVmS0j4xcSbEK8CLEgwz","is_playable":true,"name":"Born Sinner","popularity":65,"preview_url":"https://p.scdn.co/mp3-preview/0caeeda7fb848b48e1b52a89d7600a023de85a73","track_number":16,"type":"track","uri":"spotify:track:2wQVmS0j4xcSbEK8CLEgwz"},{"album":{"album_type":"ALBUM","external_urls":{"spotify":"https://open.spotify.com/album/25L1Rvy2hFux3UuQymKxvN"},"href":"https://api.spotify.com/v1/albums/25L1Rvy2hFux3UuQymKxvN","id":"25L1Rvy2hFux3UuQymKxvN","images":[{"height":640,"url":"https://i.scdn.co/image/ce470d7150c146fd3f311dd06886788077b148ca","width":640},{"height":300,"url":"https://i.scdn.co/image/429f586a9b846bff2d3c2712cb026772ad8c807c","width":300},{"height":64,"url":"https://i.scdn.co/image/86b080ba3d3ee21e227f722972730b0f59547c9b","width":64}],"name":"Camp","type":"album","uri":"spotify:album:25L1Rvy2hFux3UuQymKxvN"},"artists":[{"external_urls":{"spotify":"https://open.spotify.com/artist/73sIBHcqh3Z3NyqHKZ7FOL"},"href":"https://api.spotify.com/v1/artists/73sIBHcqh3Z3NyqHKZ7FOL","id":"73sIBHcqh3Z3NyqHKZ7FOL","name":"Childish Gambino","type":"artist","uri":"spotify:artist:73sIBHcqh3Z3NyqHKZ7FOL"}],"disc_number":1,"duration_ms":195373,"explicit":true,"external_ids":{"isrc":"USYAH1100356"},"external_urls":{"spotify":"https://open.spotify.com/track/0UvYZeRNRs2fk4zWuhgiwe"},"href":"https://api.spotify.com/v1/tracks/0UvYZeRNRs2fk4zWuhgiwe","id":"0UvYZeRNRs2fk4zWuhgiwe","is_playable":true,"name":"You See Me","popularity":34,"preview_url":"https://p.scdn.co/mp3-preview/decfa51e2fc6f3d6bbd301008cbcee545f537285","track_number":11,"type":"track","uri":"spotify:track:0UvYZeRNRs2fk4zWuhgiwe"},{"album":{"album_type":"ALBUM","external_urls":{"spotify":"https://open.spotify.com/album/63McpWDS7P0dF06fqXQMCZ"},"href":"https://api.spotify.com/v1/albums/63McpWDS7P0dF06fqXQMCZ","id":"63McpWDS7P0dF06fqXQMCZ","images":[{"height":640,"url":"https://i.scdn.co/image/e8105905a27688a772428088e347ff3eeab59fa1","width":640},{"height":300,"url":"https://i.scdn.co/image/c406fe8d4c9599deee71039921debbdcf97614e0","width":300},{"height":64,"url":"https://i.scdn.co/image/b6535e09db1da4394ee54930e9ce8bf8732a0096","width":64}],"name":"because the internet","type":"album","uri":"spotify:album:63McpWDS7P0dF06fqXQMCZ"},"artists":[{"external_urls":{"spotify":"https://open.spotify.com/artist/73sIBHcqh3Z3NyqHKZ7FOL"},"href":"https://api.spotify.com/v1/artists/73sIBHcqh3Z3NyqHKZ7FOL","id":"73sIBHcqh3Z3NyqHKZ7FOL","name":"Childish Gambino","type":"artist","uri":"spotify:artist:73sIBHcqh3Z3NyqHKZ7FOL"}],"disc_number":1,"duration_ms":171779,"explicit":true,"external_ids":{"isrc":"USYAH1300227"},"external_urls":{"spotify":"https://open.spotify.com/track/2FVidZQsdFMtcZqCxRusHs"},"href":"https://api.spotify.com/v1/tracks/2FVidZQsdFMtcZqCxRusHs","id":"2FVidZQsdFMtcZqCxRusHs","is_playable":true,"name":"II. no exit","popularity":46,"preview_url":"https://p.scdn.co/mp3-preview/d1cc702f979aa07aed12616527457234475dc19e","track_number":12,"type":"track","uri":"spotify:track:2FVidZQsdFMtcZqCxRusHs"},{"album":{"album_type":"ALBUM","external_urls":{"spotify":"https://open.spotify.com/album/21m7s6qWpksbj6l08OM7Pu"},"href":"https://api.spotify.com/v1/albums/21m7s6qWpksbj6l08OM7Pu","id":"21m7s6qWpksbj6l08OM7Pu","images":[{"height":640,"url":"https://i.scdn.co/image/cf6f3fb19048bb83d3dce108e2064e9539ba4451","width":640},{"height":300,"url":"https://i.scdn.co/image/085bb30d820edd7572749146f10e54370490cb4b","width":300},{"height":64,"url":"https://i.scdn.co/image/31cd3f49f573624bffb0846b769dc7b8ab8e62b8","width":64}],"name":"Flume","type":"album","uri":"spotify:album:21m7s6qWpksbj6l08OM7Pu"},"artists":[{"external_urls":{"spotify":"https://open.spotify.com/artist/6nxWCVXbOlEVRexSbLsTer"},"href":"https://api.spotify.com/v1/artists/6nxWCVXbOlEVRexSbLsTer","id":"6nxWCVXbOlEVRexSbLsTer","name":"Flume","type":"artist","uri":"spotify:artist:6nxWCVXbOlEVRexSbLsTer"},{"external_urls":{"spotify":"https://open.spotify.com/artist/5HAqdulyJZF8EPKIvPMRTy"},"href":"https://api.spotify.com/v1/artists/5HAqdulyJZF8EPKIvPMRTy","id":"5HAqdulyJZF8EPKIvPMRTy","name":"Moon Holiday","type":"artist","uri":"spotify:artist:5HAqdulyJZF8EPKIvPMRTy"}],"disc_number":1,"duration_ms":213883,"explicit":false,"external_ids":{"isrc":"AUFF00500384"},"external_urls":{"spotify":"https://open.spotify.com/track/0cQTTt9W487gf2kzfUumTM"},"href":"https://api.spotify.com/v1/tracks/0cQTTt9W487gf2kzfUumTM","id":"0cQTTt9W487gf2kzfUumTM","is_playable":true,"name":"Insane","popularity":53,"preview_url":"https://p.scdn.co/mp3-preview/c4610854d1b718832122dff260e1f41df45551d2","track_number":7,"type":"track","uri":"spotify:track:0cQTTt9W487gf2kzfUumTM"},{"album":{"album_type":"ALBUM","external_urls":{"spotify":"https://open.spotify.com/album/0XTAmejG8F97wF5MWoVbaY"},"href":"https://api.spotify.com/v1/albums/0XTAmejG8F97wF5MWoVbaY","id":"0XTAmejG8F97wF5MWoVbaY","images":[{"height":640,"url":"https://i.scdn.co/image/3d003b7bb9e93a101d412f475fe2d1e7df62b3c7","width":640},{"height":300,"url":"https://i.scdn.co/image/024854b21aa6905b74f73553aec7ada1e29f7388","width":300},{"height":64,"url":"https://i.scdn.co/image/97cafc7077d216c510bd0bbf35f91437fc863730","width":64}],"name":"Yeezus","type":"album","uri":"spotify:album:0XTAmejG8F97wF5MWoVbaY"},"artists":[{"external_urls":{"spotify":"https://open.spotify.com/artist/5K4W6rqBFWDnAN6FQUkS6x"},"href":"https://api.spotify.com/v1/artists/5K4W6rqBFWDnAN6FQUkS6x","id":"5K4W6rqBFWDnAN6FQUkS6x","name":"Kanye West","type":"artist","uri":"spotify:artist:5K4W6rqBFWDnAN6FQUkS6x"},{"external_urls":{"spotify":"https://open.spotify.com/artist/1KWlCxMLkAu2mYTYiFm7s2"},"href":"https://api.spotify.com/v1/artists/1KWlCxMLkAu2mYTYiFm7s2","id":"1KWlCxMLkAu2mYTYiFm7s2","name":"God","type":"artist","uri":"spotify:artist:1KWlCxMLkAu2mYTYiFm7s2"}],"disc_number":1,"duration_ms":231506,"explicit":true,"external_ids":{"isrc":"USUM71307720"},"external_urls":{"spotify":"https://open.spotify.com/track/0hhNR8YFUEYNhWNuSoMErM"},"href":"https://api.spotify.com/v1/tracks/0hhNR8YFUEYNhWNuSoMErM","id":"0hhNR8YFUEYNhWNuSoMErM","is_playable":true,"name":"I Am A God","popularity":55,"preview_url":"https://p.scdn.co/mp3-preview/ce1b9a7e0994905e22494f0472a004a6949ecb84","track_number":3,"type":"track","uri":"spotify:track:0hhNR8YFUEYNhWNuSoMErM"},{"album":{"album_type":"ALBUM","external_urls":{"spotify":"https://open.spotify.com/album/0jR6E4KQGrVLbnG6Fw3pe9"},"href":"https://api.spotify.com/v1/albums/0jR6E4KQGrVLbnG6Fw3pe9","id":"0jR6E4KQGrVLbnG6Fw3pe9","images":[{"height":640,"url":"https://i.scdn.co/image/3d1413e803be65e9b94536f6dda41a8117d846f7","width":640},{"height":300,"url":"https://i.scdn.co/image/eb01b05706dc57f410e4f13942f92c375578a3b3","width":300},{"height":64,"url":"https://i.scdn.co/image/d6c8fff3f7ddcd4844bf7d298b570800d165af6e","width":64}],"name":"\"Awaken, My Love!\"","type":"album","uri":"spotify:album:0jR6E4KQGrVLbnG6Fw3pe9"},"artists":[{"external_urls":{"spotify":"https://open.spotify.com/artist/73sIBHcqh3Z3NyqHKZ7FOL"},"href":"https://api.spotify.com/v1/artists/73sIBHcqh3Z3NyqHKZ7FOL","id":"73sIBHcqh3Z3NyqHKZ7FOL","name":"Childish Gambino","type":"artist","uri":"spotify:artist:73sIBHcqh3Z3NyqHKZ7FOL"}],"disc_number":1,"duration_ms":326933,"explicit":true,"external_ids":{"isrc":"USYAH1600107"},"external_urls":{"spotify":"https://open.spotify.com/track/2Uvy6SkNqxvnH1W68dymxG"},"href":"https://api.spotify.com/v1/tracks/2Uvy6SkNqxvnH1W68dymxG","id":"2Uvy6SkNqxvnH1W68dymxG","is_playable":true,"linked_from":{"external_urls":{"spotify":"https://open.spotify.com/track/1AlcpxsgzYwAJ1SfMPPWU4"},"href":"https://api.spotify.com/v1/tracks/1AlcpxsgzYwAJ1SfMPPWU4","id":"1AlcpxsgzYwAJ1SfMPPWU4","type":"track","uri":"spotify:track:1AlcpxsgzYwAJ1SfMPPWU4"},"name":"Redbone","popularity":76,"preview_url":"https://p.scdn.co/mp3-preview/4804269185b867cc379105c0926945ada0d75e85","track_number":6,"type":"track","uri":"spotify:track:2Uvy6SkNqxvnH1W68dymxG"}],"total":50,"limit":20,"offset":0,"href":"https://api.spotify.com/v1/me/top/tracks","previous":null,"next":"https://api.spotify.com/v1/me/top/tracks?limit=20&offset=20"}