{"items":[{"external_urls":{"spotify":"https://open.spotify.com/artist/6nxWCVXbOlEVRexSbLsTer"},"followers":{"href":null,"total":938183},"genres":["aussietronica","australian alternative rock","australian dance","downtempo","tropical house"],"href":"https://api.spotify.com/v1/artists/6nxWCVXbOlEVRexSbLsTer","id":"6nxWCVXbOlEVRexSbLsTer","images":[{"height":640,"url":"https://i.scdn.co/image/8d84f7b313ca9bafcefcf37d4e59a8265c7d3fff","width":640},{"height":320,"url":"https://i.scdn.co/image/72e229bba3cbb402a13117987ce1c42df4af10c6","width":320},{"height":160,"url":"https://i.scdn.co/image/57bdb801fbdf116402e339c0b0624f6df19d4a10","width":160}],"name":"Flume","popularity":82,"type":"artist","uri":"spotify:artist:6nxWCVXbOlEVRexSbLsTer"},{"external_urls":{"spotify":"https://open.spotify.com/artist/4FpJcNgOvIpSBeJgRg3OfN"},"followers":{"href":null,"total":181267},"genres":["francoton","french hip hop","french pop","trap francais"],"href":"https://api.spotify.com/v1/artists/4FpJcNgOvIpSBeJgRg3OfN","id":"4FpJcNgOvIpSBeJgRg3OfN","images":[{"height":563,"url":"https://i.scdn.co/image/93040da45867790c0468d17fa20672e272309315","width":1000},{"height":360,"url":"https://i.scdn.co/image/ef95cbbe738d112782e2760766354e56c3dd10f5","width":640},{"height":113,"url":"https://i.scdn.co/image/984e6ce1ed2e78bbf7cdfb8f0326b71a1324ec03","width":200},{"height":36,"url":"https://i.scdn.co/image/1bdc0009be97e8a49d340017ddee30d85a3fa446","width":64}],"name":"Orelsan","popularity":57,"type":"artist","uri":"spotify:artist:4FpJcNgOvIpSBeJgRg3OfN"},{"external_urls":{"spotify":"https://open.spotify.com/artist/7jy3rLJdDQY21OgRLCZ9sD"},"followers":{"href":null,"total":2276611},"genres":["alternative metal","alternative rock","funk rock","hard rock","permanent wave","pop rock","post-grunge","rock"],"href":"https://api.spotify.com/v1/artists/7jy3rLJdDQY21OgRLCZ9sD","id":"7jy3rLJdDQY21OgRLCZ9sD","images":[{"height":467,"url":"https://i.scdn.co/image/dacafa4d27b963a536e38611ad85fccc8e710984","width":583},{"height":160,"url":"https://i.scdn.co/image/043784adc3228d7dc7de5fb77830bd461ad1b799","width":200},{"height":51,"url":"https://i.scdn.co/image/ce1e5bf14ea53994ff72d0726ad35f49a7c732cc","width":64}],"name":"Foo Fighters","popularity":78,"type":"artist","uri":"spotify:artist:7jy3rLJdDQY21OgRLCZ9sD"},{"external_urls":{"spotify":"https://open.spotify.com/artist/5Nq9MbzweBc5oL4WzsECx4"},"followers":{"href":null,"total":40613},"genres":["chanson","francoton","french pop","french rock"],"href":"https://api.spotify.com/v1/artists/5Nq9MbzweBc5oL4WzsECx4","id":"5Nq9MbzweBc5oL4WzsECx4","images":[{"height":640,"url":"https://i.scdn.co/image/145efa67b795334e78c7bc8621d578d234d7556d","width":640},{"height":300,"url":"https://i.scdn.co/image/477a1c7479c5b2863322d40c5d8a9fca0e83375f","width":300},{"height":64,"url":"https://i.scdn.co/image/4104d5578daa9ddca7ae8d9eabf6d9cf25c0e8bd","width":64}],"name":"Calogero","popularity":53,"type":"artist","uri":"spotify:artist:5Nq9MbzweBc5oL4WzsECx4"},{"external_urls":{"spotify":"https://open.spotify.com/artist/07YZf4WDAMNwqr4jfgOZ8y"},"followers":{"href":null,"total":2283554},"genres":["dance pop","pop","pop rap","post-teen pop","r&b"],"href":"https://api.spotify.com/v1/artists/07YZf4WDAMNwqr4jfgOZ8y","id":"07YZf4WDAMNwqr4jfgOZ8y","images":[{"height":640,"url":"https://i.scdn.co/image/2076c4200b719011a4e3c56462570cf21e0ea854","width":640},{"height":320,"url":"https://i.scdn.co/image/dce37ea99928b58bd11518ce5c08322b2b802391","width":320},{"height":160,"url":"https://i.scdn.co/image/712a0ea42703ce400b83e40f30e0c8957a508fca","width":160}],"name":"Jason Derulo","popularity":82,"type":"artist","uri":"spotify:artist:07YZf4WDAMNwqr4jfgOZ8y"},{"external_urls":{"spotify":"https://open.spotify.com/artist/1gR0gsQYfi6joyO1dlp76N"},"followers":{"href":null,"total":502200},"genres":["alternative dance","dance-punk","electro house","electronic","filter house","indietronica","new rave"],"href":"https://api.spotify.com/v1/artists/1gR0gsQYfi6joyO1dlp76N","id":"1gR0gsQYfi6joyO1dlp76N","images":[{"height":640,"url":"https://i.scdn.co/image/58d9c87c082d3af6f8ea8dc7ac44dd3823280b45","width":640},{"height":320,"url":"https://i.scdn.co/image/01a786afab31738885eaf683872cf9b7ea9ee150","width":320},{"height":160,"url":"https://i.scdn.co/image/218299a94e8af3a5b324af8fe14055076f7371b7","width":160}],"name":"Justice","popularity":67,"type":"artist","uri":"spotify:artist:1gR0gsQYfi6joyO1dlp76N"},{"external_urls":{"spotify":"https://open.spotify.com/artist/7rz6ZZErn5YFDteXKhyf3g"},"followers":{"href":null,"total":81},"genres":["francoton","french hip hop","french reggae","trap francais"],"href":"https://api.spotify.com/v1/artists/7rz6ZZErn5YFDteXKhyf3g","id":"7rz6ZZErn5YFDteXKhyf3g","images":[{"height":640,"url":"https://i.scdn.co/image/8246dc90eedeb4b5080219f3af5ba4fe9667cc81","width":640},{"height":300,"url":"https://i.scdn.co/image/4e5a4c4c2cfdc9d006050997cb7158dbb6d3d3d1","width":300},{"height":64,"url":"https://i.scdn.co/image/57fa4eea789a6864dc0f3e4741ce1e72a5dc4929","width":64}],"name":"Disiz La Peste","popularity":52,"type":"artist","uri":"spotify:artist:7rz6ZZErn5YFDteXKhyf3g"},{"external_urls":{"spotify":"https://open.spotify.com/artist/7oPftvlwr6VrsViSDV7fJY"},"followers":{"href":null,"total":2742145},"genres":["alternative rock","permanent wave","pop punk","pop rock","punk","rock"],"href":"https://api.spotify.com/v1/artists/7oPftvlwr6VrsViSDV7fJY","id":"7oPftvlwr6VrsViSDV7fJY","images":[{"height":640,"url":"https://i.scdn.co/image/750d2623778e3522734d5e1942a18401fe100fc9","width":640},{"height":320,"url":"https://i.scdn.co/image/17d5df7a8bc0d5689545e99475cbbeaab485bdf7","width":320},{"height":160,"url":"https://i.scdn.co/image/e5efead78896bfffe37a34b9ba9345129ab9a199","width":160}],"name":"Green Day","popularity":82,"type":"artist","uri":"spotify:artist:7oPftvlwr6VrsViSDV7fJY"},{"external_urls":{"spotify":"https://open.spotify.com/artist/0c173mlxpT3dSFRgMO8XPh"},"followers":{"href":null,"total":1674751},"genres":["detroit hip hop","dwn trap","pop rap","rap","trap music"],"href":"https://api.spotify.com/v1/artists/0c173mlxpT3dSFRgMO8XPh","id":"0c173mlxpT3dSFRgMO8XPh","images":[{"height":640,"url":"https://i.scdn.co/image/20495e4cd325478c667235849a7fc26099721cfd","width":640},{"height":320,"url":"https://i.scdn.co/image/682bc7dfc5d24bc5226d60c3922e70cd94a18388","width":320},{"height":160,"url":"https://i.scdn.co/image/fab51295cd497ed5f9177be375b8d9e3a6e7c188","width":160}],"name":"Big Sean","popularity":88,"type":"artist","uri":"spotify:artist:0c173mlxpT3dSFRgMO8XPh"},{"external_urls":{"spotify":"https://open.spotify.com/artist/7n2wHs1TKAczGzO7Dd2rGr"},"followers":{"href":null,"total":2500844},"genres":["canadian pop","pop","viral pop"],"href":"https://api.spotify.com/v1/artists/7n2wHs1TKAczGzO7Dd2rGr","id":"7n2wHs1TKAczGzO7Dd2rGr","images":[{"height":1000,"url":"https://i.scdn.co/image/889d1206458b26f94aab88e23257706847b41091","width":1000},{"height":640,"url":"https://i.scdn.co/image/383e1c64c5f5c00faab34bf3d93b91e88179a14f","width":640},{"height":200,"url":"https://i.scdn.co/image/9a3488787c85c2b250b41f9cc11bd680e1bc10ff","width":200},{"height":64,"url":"https://i.scdn.co/image/e11faff72ec3bfcdd5b98c50535c565297c0fea4","width":64}],"name":"Shawn Mendes","popularity":91,"type":"artist","uri":"spotify:artist:7n2wHs1TKAczGzO7Dd2rGr"},{"external_urls":{"spotify":"https://open.spotify.com/artist/7e1ICztHM2Sc4JNLxeMXYl"},"followers":{"href":null,"total":83540},"genres":["deep indie r&b","deep pop r&b","indie r&b","r&b","rap"],"href":"https://api.spotify.com/v1/artists/7e1ICztHM2Sc4JNLxeMXYl","id":"7e1ICztHM2Sc4JNLxeMXYl","images":[{"height":640,"url":"https://i.scdn.co/image/35d8e93b6a29bd15e6cbad56a8e4f777469e1a8d","width":640},{"height":300,"url":"https://i.scdn.co/image/d609584c62d5b07eba7d601a4bf5a86b946b0375","width":300},{"height":64,"url":"https://i.scdn.co/image/1f3fc4d6790197d5cd3d81e0b52557dafdd2703b","width":64}],"name":"dvsn","popularity":67,"type":"artist","uri":"spotify:artist:7e1ICztHM2Sc4JNLxeMXYl"},{"external_urls":{"spotify":"https://open.spotify.com/artist/7fw0E8WHdG3r9SuPBcGmWk"},"followers":{"href":null,"total":14936},"genres":["deep australian indie","escape room"],"href":"https://api.spotify.com/v1/artists/7fw0E8WHdG3r9SuPBcGmWk","id":"7fw0E8WHdG3r9SuPBcGmWk","images":[{"height":640,"url":"https://i.scdn.co/image/a62b122179ca67170670d8714e892587dbf5d148","width":640},{"height":300,"url":"https://i.scdn.co/image/685ec95ddd22f4fb878f2a9aa439c5f792044147","width":300},{"height":64,"url":"https://i.scdn.co/image/bce69bc656d0aa55ccf9e1710afc19c60509016b","width":64}],"name":"Sampa the Great","popularity":53,"type":"artist","uri":"spotify:artist:7fw0E8WHdG3r9SuPBcGmWk"},{"external_urls":{"spotify":"https://open.spotify.com/artist/0du5cEVh5yTK9QJze8zA0C"},"followers":{"href":null,"total":5408061},"genres":["dance pop","pop"],"href":"https://api.spotify.com/v1/artists/0du5cEVh5yTK9QJze8zA0C","id":"0du5cEVh5yTK9QJze8zA0C","images":[{"height":640,"url":"https://i.scdn.co/image/aa32d6d4ca2467974403518dd3ebfe8831c5ced1","width":640},{"height":320,"url":"https://i.scdn.co/image/63cad86cb183568085a4e5f0be86aa187cc511e4","width":320},{"height":160,"url":"https://i.scdn.co/image/5461dcbb3f23e1df62d85c8273fc49cc4edd49d5","width":160}],"name":"Bruno Mars","popularity":93,"type":"artist","uri":"spotify:artist:0du5cEVh5yTK9QJze8zA0C"},{"external_urls":{"spotify":"https://open.spotify.com/artist/5Y5TRrQiqgUO4S36tzjIRZ"},"followers":{"href":null,"total":374733},"genres":["dance pop","dirty south rap","hip hop","hip pop","pop","pop rap","post-teen pop","r&b","rap","southern hip hop","urban contemporary"],"href":"https://api.spotify.com/v1/artists/5Y5TRrQiqgUO4S36tzjIRZ","id":"5Y5TRrQiqgUO4S36tzjIRZ","images":[{"height":598,"url":"https://i.scdn.co/image/5b7374c735eebfd9f3e27a01ec7ef5492e54438e","width":999},{"height":383,"url":"https://i.scdn.co/image/94ca82ace86b15d66698d8f43cdb53b4cebf1db9","width":640},{"height":120,"url":"https://i.scdn.co/image/921db34216938a87abaf511b0e39b12187c457e9","width":200},{"height":38,"url":"https://i.scdn.co/image/83e301c50295b493bf8ec18727a374389fb2e571","width":64}],"name":"Timbaland","popularity":75,"type":"artist","uri":"spotify:artist:5Y5TRrQiqgUO4S36tzjIRZ"},{"external_urls":{"spotify":"https://open.spotify.com/artist/7BMccF0hQFBpP6417k1OtQ"},"followers":{"href":null,"total":246810},"genres":["alternative hip hop","east coast hip hop","escape room","gangster rap","hip hop","pop rap","rap","southern hip hop","underground hip hop"],"href":"https://api.spotify.com/v1/artists/7BMccF0hQFBpP6417k1OtQ","id":"7BMccF0hQFBpP6417k1OtQ","images":[{"height":662,"url":"https://i.scdn.co/image/83095fb32380badf33c13034722a75dfa11cc7ac","width":999},{"height":424,"url":"https://i.scdn.co/image/4a05495bc5ba12b0518e45068a8103ad667ed652","width":640},{"height":132,"url":"https://i.scdn.co/image/621369c0f345dbb3f6748e8756860a07ba9e4849","width":199},{"height":42,"url":"https://i.scdn.co/image/b3dd39425191f83bfbd2b2c8cf565fa4bcfbe47d","width":63}],"name":"Action Bronson","popularity":69,"type":"artist","uri":"spotify:artist:7BMccF0hQFBpP6417k1OtQ"},{"external_urls":{"spotify":"https://open.spotify.com/artist/3WrFJ7ztbogyGnTHbHJFl2"},"followers":{"href":null,"total":2695320},"genres":["british invasion","classic rock","merseybeat","protopunk","psychedelic rock","rock"],"href":"https://api.spotify.com/v1/artists/3WrFJ7ztbogyGnTHbHJFl2","id":"3WrFJ7ztbogyGnTHbHJFl2","images":[{"height":1000,"url":"https://i.scdn.co/image/934c57df9fbdbbaa5e93b55994a4cb9571fd2085","width":1000},{"height":640,"url":"https://i.scdn.co/image/5f70d98d3e4616a02a3afe2aa9a840b9157b92a1","width":640},{"height":200,"url":"https://i.scdn.co/image/7fe1a693adc52e274962f1c61d76ca9ccc62c191","width":200},{"height":64,"url":"https://i.scdn.co/image/857b1ce5b1b372b873b0a8bdb3ff8023b6c61d39","width":64}],"name":"The Beatles","popularity":86,"type":"artist","uri":"spotify:artist:3WrFJ7ztbogyGnTHbHJFl2"},{"external_urls":{"spotify":"https://open.spotify.com/artist/68xuC1qXRhCUvGd4SSM655"},"followers":{"href":null,"total":29627},"genres":["blues-rock","electric blues","neo mellow"],"href":"https://api.spotify.com/v1/artists/68xuC1qXRhCUvGd4SSM655","id":"68xuC1qXRhCUvGd4SSM655","images":[{"height":628,"url":"https://i.scdn.co/image/66de839461f197466fd3f348c9bfb4e435f41099","width":640},{"height":294,"url":"https://i.scdn.co/image/fbab748eb517668badc8224c4e6de2f3a0b6a950","width":300},{"height":63,"url":"https://i.scdn.co/image/57bcf19960942757dd09cde9417acf0c9d2fde7b","width":64}],"name":"John Mayer Trio","popularity":46,"type":"artist","uri":"spotify:artist:68xuC1qXRhCUvGd4SSM655"},{"external_urls":{"spotify":"https://open.spotify.com/artist/7dGJo4pcD2V6oG8kP0tJRR"},"followers":{"href":null,"total":6939364},"genres":["detroit hip hop","g funk","hip hop","pop rap","rap"],"href":"https://api.spotify.com/v1/artists/7dGJo4pcD2V6oG8kP0tJRR","id":"7dGJo4pcD2V6oG8kP0tJRR","images":[{"height":621,"url":"https://i.scdn.co/image/15c446495ae50039ba2bef43172c66240fe0605a","width":1000},{"height":397,"url":"https://i.scdn.co/image/184c822d252ceb7561539063a904ef433ac43562","width":640},{"height":124,"url":"https://i.scdn.co/image/0059ebe7ea62b9efde13eda6c6bbc605382b41e6","width":200},{"height":40,"url":"https://i.scdn.co/image/683e358f53d8a3d5ae8ae76053811e836931c94a","width":64}],"name":"Eminem","popularity":92,"type":"artist","uri":"spotify:artist:7dGJo4pcD2V6oG8kP0tJRR"},{"external_urls":{"spotify":"https://open.spotify.com/artist/6oMuImdp5ZcFhWP0ESe6mG"},"followers":{"href":null,"total":645866},"genres":["dwn trap","pop rap","rap","trap music"],"href":"https://api.spotify.com/v1/artists/6oMuImdp5ZcFhWP0ESe6mG","id":"6oMuImdp5ZcFhWP0ESe6mG","images":[{"height":640,"url":"https://i.scdn.co/image/6f77fdcfcb5e42002d3ebd7711681bf0ccc3057e","width":640},{"height":320,"url":"https://i.scdn.co/image/b4324d7b26fa40bffda59843c301353246bf1f40","width":320},{"height":160,"url":"https://i.scdn.co/image/cb7251a34b200df57adf21220e3db882665a3240","width":160}],"name":"Migos","popularity":87,"type":"artist","uri":"spotify:artist:6oMuImdp5ZcFhWP0ESe6mG"},{"external_urls":{"spotify":"https://open.spotify.com/artist/0FWzNDaEu9jdgcYTbcOa4F"},"followers":{"href":null,"total":266866},"genres":["dance pop","electropowerpop","emo","pop","pop punk","pop rap","post-teen pop"],"href":"https://api.spotify.com/v1/artists/0FWzNDaEu9jdgcYTbcOa4F","id":"0FWzNDaEu9jdgcYTbcOa4F","images":[{"height":640,"url":"https://i.scdn.co/image/305a374cd85f4be8c8dc0aaabd06b2b45d774eab","width":640},{"height":320,"url":"https://i.scdn.co/image/ef84f6e97e24cfe641d926cc30edfee8bc0a1d7e","width":320},{"height":160,"url":"https://i.scdn.co/image/816345628a592950a5571e98c21515d223d078d7","width":160}],"name":"3OH!3","popularity":65,"type":"artist","uri":"spotify:artist:0FWzNDaEu9jdgcYTbcOa4F"}],"total":50,"limit":20,"offset":0,"previous":null,"href":"https://api.spotify.com/v1/me/top/artists","next":"https://api.spotify.com/v1/me/top/artists?limit=20&offset=20"}