{"href":"https://api.spotify.com/v1/users/11879785/playlists?offset=0&limit=2","items":[{"collaborative":false,"external_urls":{"spotify":"http://open.spotify.com/user/spotify/playlist/5UqllVe1ZknYIoptNFRueU"},"href":"https://api.spotify.com/v1/users/spotify/playlists/5UqllVe1ZknYIoptNFRueU","id":"5UqllVe1ZknYIoptNFRueU","images":[{"height":null,"url":"https://u.scdn.co/images/pl/default/70d4565bfd6f51ad19de67b47cc91c156bf5dacd","width":null}],"name":"This Is: Daft Punk","owner":{"external_urls":{"spotify":"http://open.spotify.com/user/spotify"},"href":"https://api.spotify.com/v1/users/spotify","id":"spotify","type":"user","uri":"spotify:user:spotify"},"public":false,"snapshot_id":"tz7i5bCHCaJGLGRvljJPkj27UKSP121amNY+GOom3IpI15dzxLlrzHAh9OF2gNR3","tracks":{"href":"https://api.spotify.com/v1/users/spotify/playlists/5UqllVe1ZknYIoptNFRueU/tracks","total":26},"type":"playlist","uri":"spotify:user:spotify:playlist:5UqllVe1ZknYIoptNFRueU"},{"collaborative":false,"external_urls":{"spotify":"http://open.spotify.com/user/11879785/playlist/0ACJVG9jDj6d2wu8u9MSvR"},"href":"https://api.spotify.com/v1/users/11879785/playlists/0ACJVG9jDj6d2wu8u9MSvR","id":"0ACJVG9jDj6d2wu8u9MSvR","images":[{"height":640,"url":"https://mosaic.scdn.co/640/73fb1de575a85db765a1c6c928f81a38d0db03aa5640a0a6dbcb39e79db25923e7d8cfac19c04fb54da529e345afffddf56ee449eb6256e963c0d67b4fcce9eab7f18546238b64e58ca1e8bc37d3af12","width":640},{"height":300,"url":"https://mosaic.scdn.co/300/73fb1de575a85db765a1c6c928f81a38d0db03aa5640a0a6dbcb39e79db25923e7d8cfac19c04fb54da529e345afffddf56ee449eb6256e963c0d67b4fcce9eab7f18546238b64e58ca1e8bc37d3af12","width":300},{"height":60,"url":"https://mosaic.scdn.co/60/73fb1de575a85db765a1c6c928f81a38d0db03aa5640a0a6dbcb39e79db25923e7d8cfac19c04fb54da529e345afffddf56ee449eb6256e963c0d67b4fcce9eab7f18546238b64e58ca1e8bc37d3af12","width":60}],"name":"Chill","owner":{"external_urls":{"spotify":"http://open.spotify.com/user/11879785"},"href":"https://api.spotify.com/v1/users/11879785","id":"11879785","type":"user","uri":"spotify:user:11879785"},"public":false,"snapshot_id":"3QIcR32NNvq+uhDvcJXHWtHuvba2LABqWwMAyXWnkXd+IJJe2z95ZmV4fMqLV9Pm","tracks":{"href":"https://api.spotify.com/v1/users/11879785/playlists/0ACJVG9jDj6d2wu8u9MSvR/tracks","total":9},"type":"playlist","uri":"spotify:user:11879785:playlist:0ACJVG9jDj6d2wu8u9MSvR"}],"limit":2,"next":"https://api.spotify.com/v1/users/11879785/playlists?offset=2&limit=2","offset":0,"previous":null,"total":2}