{"href":"https://api.spotify.com/v1/artists/4Nrd0CtP8txoQhnnlRA6V6/albums?offset=0&limit=20&album_type=single,album,compilation,appears_on,ep","items":[{"album_type":"album","artists":[{"external_urls":{"spotify":"https://open.spotify.com/artist/4Nrd0CtP8txoQhnnlRA6V6"},"href":"https://api.spotify.com/v1/artists/4Nrd0CtP8txoQhnnlRA6V6","id":"4Nrd0CtP8txoQhnnlRA6V6","name":"Vianney","type":"artist","uri":"spotify:artist:4Nrd0CtP8txoQhnnlRA6V6"}],"available_markets":["AD","AR","AT","AU","BE","BG","BO","BR","CH","CL","CO","CR","CY","CZ","DE","DK","DO","EC","EE","ES","FI","FR","GB","GR","GT","HK","HN","HU","ID","IE","IS","IT","JP","LI","LT","LU","LV","MC","MT","MX","MY","NI","NL","NO","NZ","PA","PE","PH","PL","PT","PY","SE","SG","SK","SV","TR","TW","US","UY"],"external_urls":{"spotify":"https://open.spotify.com/album/3sb3TaTkw7pdVD2V5cSBGi"},"href":"https://api.spotify.com/v1/albums/3sb3TaTkw7pdVD2V5cSBGi","id":"3sb3TaTkw7pdVD2V5cSBGi","images":[{"height":640,"url":"https://i.scdn.co/image/c250c6d9f4db5ca5641af9321c935bc1999d0c5e","width":640},{"height":300,"url":"https://i.scdn.co/image/bc872b03d4e9ec1c2bf2a7ee908c5162cff43a18","width":300},{"height":64,"url":"https://i.scdn.co/image/0ee4ae93b3b3a022225be832c459c4486c4a989e","width":64}],"name":"Vianney","type":"album","uri":"spotify:album:3sb3TaTkw7pdVD2V5cSBGi"},{"album_type":"album","artists":[{"external_urls":{"spotify":"https://open.spotify.com/artist/4Nrd0CtP8txoQhnnlRA6V6"},"href":"https://api.spotify.com/v1/artists/4Nrd0CtP8txoQhnnlRA6V6","id":"4Nrd0CtP8txoQhnnlRA6V6","name":"Vianney","type":"artist","uri":"spotify:artist:4Nrd0CtP8txoQhnnlRA6V6"}],"available_markets":["CA"],"external_urls":{"spotify":"https://open.spotify.com/album/3E6zAPFDThiqWY7SXEYtZU"},"href":"https://api.spotify.com/v1/albums/3E6zAPFDThiqWY7SXEYtZU","id":"3E6zAPFDThiqWY7SXEYtZU","images":[{"height":640,"url":"https://i.scdn.co/image/b4fc75db830214799c5f693348cbd03200502ac0","width":640},{"height":300,"url":"https://i.scdn.co/image/904dc16a2a53b0baceb14c9da81c2eb2934dd11b","width":300},{"height":64,"url":"https://i.scdn.co/image/b02ada3709e94e3dcc9356405410f0481bbe2728","width":64}],"name":"Vianney","type":"album","uri":"spotify:album:3E6zAPFDThiqWY7SXEYtZU"},{"album_type":"album","artists":[{"external_urls":{"spotify":"https://open.spotify.com/artist/4Nrd0CtP8txoQhnnlRA6V6"},"href":"https://api.spotify.com/v1/artists/4Nrd0CtP8txoQhnnlRA6V6","id":"4Nrd0CtP8txoQhnnlRA6V6","name":"Vianney","type":"artist","uri":"spotify:artist:4Nrd0CtP8txoQhnnlRA6V6"}],"available_markets":["AD","AR","AU","BE","BG","BO","BR","CH","CL","CO","CR","CY","CZ","DK","DO","EC","EE","ES","FI","FR","GB","GR","GT","HK","HN","HU","ID","IE","IS","IT","JP","LI","LT","LU","LV","MC","MT","MX","MY","NI","NL","NO","NZ","PA","PE","PH","PL","PT","PY","SE","SG","SK","SV","TR","TW","US","UY"],"external_urls":{"spotify":"https://open.spotify.com/album/2ZbA2Pic7Sh9gGmLk5S2Ni"},"href":"https://api.spotify.com/v1/albums/2ZbA2Pic7Sh9gGmLk5S2Ni","id":"2ZbA2Pic7Sh9gGmLk5S2Ni","images":[{"height":640,"url":"https://i.scdn.co/image/0e97b12bef3aa30fd8c35181de89033fcaaf75a3","width":640},{"height":300,"url":"https://i.scdn.co/image/a17308bb5f14b9b546ad21e0873c1ab87844a248","width":300},{"height":64,"url":"https://i.scdn.co/image/24e897c73127f4f40797a4a9e4d58179aa5ae4d0","width":64}],"name":"Idées blanches (Nouvelle édition)","type":"album","uri":"spotify:album:2ZbA2Pic7Sh9gGmLk5S2Ni"},{"album_type":"album","artists":[{"external_urls":{"spotify":"https://open.spotify.com/artist/4Nrd0CtP8txoQhnnlRA6V6"},"href":"https://api.spotify.com/v1/artists/4Nrd0CtP8txoQhnnlRA6V6","id":"4Nrd0CtP8txoQhnnlRA6V6","name":"Vianney","type":"artist","uri":"spotify:artist:4Nrd0CtP8txoQhnnlRA6V6"}],"available_markets":["AD","AR","AU","BE","BG","BO","BR","CH","CL","CO","CR","CY","CZ","DK","DO","EC","EE","ES","FI","FR","GB","GR","GT","HK","HN","HU","ID","IE","IS","IT","JP","LI","LT","LU","LV","MC","MT","MX","MY","NI","NL","NO","NZ","PA","PE","PH","PL","PT","PY","SE","SG","SK","SV","TR","TW","US","UY"],"external_urls":{"spotify":"https://open.spotify.com/album/3Bqz1JqZLqYa2YvZYhs8PS"},"href":"https://api.spotify.com/v1/albums/3Bqz1JqZLqYa2YvZYhs8PS","id":"3Bqz1JqZLqYa2YvZYhs8PS","images":[{"height":640,"url":"https://i.scdn.co/image/c7b4375a6e08b51c7824b58e94a68fbb65fe05a1","width":640},{"height":300,"url":"https://i.scdn.co/image/00fb3a69882377d85b09e5d8396f9baaa45068cb","width":300},{"height":64,"url":"https://i.scdn.co/image/cf67927286df32edf4aed917c7e3fdb82f1428db","width":64}],"name":"Idées blanches (Les acoustiques)","type":"album","uri":"spotify:album:3Bqz1JqZLqYa2YvZYhs8PS"},{"album_type":"album","artists":[{"external_urls":{"spotify":"https://open.spotify.com/artist/4Nrd0CtP8txoQhnnlRA6V6"},"href":"https://api.spotify.com/v1/artists/4Nrd0CtP8txoQhnnlRA6V6","id":"4Nrd0CtP8txoQhnnlRA6V6","name":"Vianney","type":"artist","uri":"spotify:artist:4Nrd0CtP8txoQhnnlRA6V6"}],"available_markets":["CA"],"external_urls":{"spotify":"https://open.spotify.com/album/7hokJqnY7z96AL7mCyZWah"},"href":"https://api.spotify.com/v1/albums/7hokJqnY7z96AL7mCyZWah","id":"7hokJqnY7z96AL7mCyZWah","images":[{"height":640,"url":"https://i.scdn.co/image/34f599124c1e3dc6626b7eee7b6dc39c0dce3e05","width":640},{"height":300,"url":"https://i.scdn.co/image/88052cd7a5358f92adb399703aac1d857a1d3fb2","width":300},{"height":64,"url":"https://i.scdn.co/image/d8e20210330e13108aa3860d34917acefd92b5a6","width":64}],"name":"Idées Blanches (les acoustiques)","type":"album","uri":"spotify:album:7hokJqnY7z96AL7mCyZWah"},{"album_type":"album","artists":[{"external_urls":{"spotify":"https://open.spotify.com/artist/4Nrd0CtP8txoQhnnlRA6V6"},"href":"https://api.spotify.com/v1/artists/4Nrd0CtP8txoQhnnlRA6V6","id":"4Nrd0CtP8txoQhnnlRA6V6","name":"Vianney","type":"artist","uri":"spotify:artist:4Nrd0CtP8txoQhnnlRA6V6"}],"available_markets":["AD","AR","AU","BE","BG","BO","BR","CH","CL","CO","CR","CY","CZ","DK","DO","EC","EE","ES","FI","FR","GB","GR","GT","HK","HN","HU","ID","IE","IS","IT","JP","LI","LT","LU","LV","MC","MT","MX","MY","NI","NL","NO","NZ","PA","PE","PH","PL","PT","PY","SE","SG","SK","SV","TR","TW","US","UY"],"external_urls":{"spotify":"https://open.spotify.com/album/0VvfkgvAZ2STc0EyVOVi4P"},"href":"https://api.spotify.com/v1/albums/0VvfkgvAZ2STc0EyVOVi4P","id":"0VvfkgvAZ2STc0EyVOVi4P","images":[{"height":640,"url":"https://i.scdn.co/image/0e97b12bef3aa30fd8c35181de89033fcaaf75a3","width":640},{"height":300,"url":"https://i.scdn.co/image/a17308bb5f14b9b546ad21e0873c1ab87844a248","width":300},{"height":64,"url":"https://i.scdn.co/image/24e897c73127f4f40797a4a9e4d58179aa5ae4d0","width":64}],"name":"Idées blanches (Edition deluxe)","type":"album","uri":"spotify:album:0VvfkgvAZ2STc0EyVOVi4P"},{"album_type":"album","artists":[{"external_urls":{"spotify":"https://open.spotify.com/artist/4Nrd0CtP8txoQhnnlRA6V6"},"href":"https://api.spotify.com/v1/artists/4Nrd0CtP8txoQhnnlRA6V6","id":"4Nrd0CtP8txoQhnnlRA6V6","name":"Vianney","type":"artist","uri":"spotify:artist:4Nrd0CtP8txoQhnnlRA6V6"}],"available_markets":["CA"],"external_urls":{"spotify":"https://open.spotify.com/album/4tym098FRHW7QfCz2t0FST"},"href":"https://api.spotify.com/v1/albums/4tym098FRHW7QfCz2t0FST","id":"4tym098FRHW7QfCz2t0FST","images":[{"height":640,"url":"https://i.scdn.co/image/670c6ca0f24299964b6fae923c81fe7cefffd05c","width":640},{"height":300,"url":"https://i.scdn.co/image/ef3680fdb677e2b9f7463b9deeb3aa7052deda05","width":300},{"height":64,"url":"https://i.scdn.co/image/94345024301e954b8b64567894ead4081bd314b3","width":64}],"name":"Idées blanches (Édition deluxe)","type":"album","uri":"spotify:album:4tym098FRHW7QfCz2t0FST"},{"album_type":"album","artists":[{"external_urls":{"spotify":"https://open.spotify.com/artist/4Nrd0CtP8txoQhnnlRA6V6"},"href":"https://api.spotify.com/v1/artists/4Nrd0CtP8txoQhnnlRA6V6","id":"4Nrd0CtP8txoQhnnlRA6V6","name":"Vianney","type":"artist","uri":"spotify:artist:4Nrd0CtP8txoQhnnlRA6V6"}],"available_markets":["AT","CH","DE"],"external_urls":{"spotify":"https://open.spotify.com/album/3PZh3KWGiadJqfMCI5N8sL"},"href":"https://api.spotify.com/v1/albums/3PZh3KWGiadJqfMCI5N8sL","id":"3PZh3KWGiadJqfMCI5N8sL","images":[{"height":640,"url":"https://i.scdn.co/image/8e2dda34bcb7c08794e0245390d3c8f243388cd8","width":640},{"height":300,"url":"https://i.scdn.co/image/eb926cf99d83addb5581e64dd47fc77675db0812","width":300},{"height":64,"url":"https://i.scdn.co/image/4076d0bfa9497f73fe412ebbb085eef291c2f277","width":64}],"name":"Idées blanches","type":"album","uri":"spotify:album:3PZh3KWGiadJqfMCI5N8sL"},{"album_type":"album","artists":[{"external_urls":{"spotify":"https://open.spotify.com/artist/4Nrd0CtP8txoQhnnlRA6V6"},"href":"https://api.spotify.com/v1/artists/4Nrd0CtP8txoQhnnlRA6V6","id":"4Nrd0CtP8txoQhnnlRA6V6","name":"Vianney","type":"artist","uri":"spotify:artist:4Nrd0CtP8txoQhnnlRA6V6"}],"available_markets":["AD","AR","AU","BE","BG","BO","BR","CL","CO","CR","CY","CZ","DK","DO","EC","EE","ES","FI","FR","GB","GR","GT","HK","HN","HU","ID","IE","IS","IT","JP","LI","LT","LU","LV","MC","MT","MX","MY","NI","NL","NO","NZ","PA","PE","PH","PL","PT","PY","SE","SG","SK","SV","TR","TW","US","UY"],"external_urls":{"spotify":"https://open.spotify.com/album/3UIXocl30yFAZd7wqQNmu7"},"href":"https://api.spotify.com/v1/albums/3UIXocl30yFAZd7wqQNmu7","id":"3UIXocl30yFAZd7wqQNmu7","images":[{"height":640,"url":"https://i.scdn.co/image/acee8e6eaf3e2b2b0e427711872c3e43be8c993a","width":640},{"height":300,"url":"https://i.scdn.co/image/42affa8b481f0a2905c4feebc09b7483b8991b8b","width":300},{"height":64,"url":"https://i.scdn.co/image/c784886d760273a6037cf8d53d1a84dde1ecdfb5","width":64}],"name":"Idées blanches","type":"album","uri":"spotify:album:3UIXocl30yFAZd7wqQNmu7"},{"album_type":"album","artists":[{"external_urls":{"spotify":"https://open.spotify.com/artist/4Nrd0CtP8txoQhnnlRA6V6"},"href":"https://api.spotify.com/v1/artists/4Nrd0CtP8txoQhnnlRA6V6","id":"4Nrd0CtP8txoQhnnlRA6V6","name":"Vianney","type":"artist","uri":"spotify:artist:4Nrd0CtP8txoQhnnlRA6V6"}],"available_markets":["CA"],"external_urls":{"spotify":"https://open.spotify.com/album/4JHgWFaX6K0LsNhmNUblr5"},"href":"https://api.spotify.com/v1/albums/4JHgWFaX6K0LsNhmNUblr5","id":"4JHgWFaX6K0LsNhmNUblr5","images":[{"height":640,"url":"https://i.scdn.co/image/acee8e6eaf3e2b2b0e427711872c3e43be8c993a","width":640},{"height":300,"url":"https://i.scdn.co/image/42affa8b481f0a2905c4feebc09b7483b8991b8b","width":300},{"height":64,"url":"https://i.scdn.co/image/c784886d760273a6037cf8d53d1a84dde1ecdfb5","width":64}],"name":"Idées blanches","type":"album","uri":"spotify:album:4JHgWFaX6K0LsNhmNUblr5"},{"album_type":"album","artists":[{"external_urls":{"spotify":"https://open.spotify.com/artist/4Nrd0CtP8txoQhnnlRA6V6"},"href":"https://api.spotify.com/v1/artists/4Nrd0CtP8txoQhnnlRA6V6","id":"4Nrd0CtP8txoQhnnlRA6V6","name":"Vianney","type":"artist","uri":"spotify:artist:4Nrd0CtP8txoQhnnlRA6V6"}],"available_markets":["CA"],"external_urls":{"spotify":"https://open.spotify.com/album/69WTHulh0KBAm0yaXrXxbs"},"href":"https://api.spotify.com/v1/albums/69WTHulh0KBAm0yaXrXxbs","id":"69WTHulh0KBAm0yaXrXxbs","images":[{"height":640,"url":"https://i.scdn.co/image/acee8e6eaf3e2b2b0e427711872c3e43be8c993a","width":640},{"height":300,"url":"https://i.scdn.co/image/42affa8b481f0a2905c4feebc09b7483b8991b8b","width":300},{"height":64,"url":"https://i.scdn.co/image/c784886d760273a6037cf8d53d1a84dde1ecdfb5","width":64}],"name":"Idées blanches","type":"album","uri":"spotify:album:69WTHulh0KBAm0yaXrXxbs"},{"album_type":"single","artists":[{"external_urls":{"spotify":"https://open.spotify.com/artist/4Nrd0CtP8txoQhnnlRA6V6"},"href":"https://api.spotify.com/v1/artists/4Nrd0CtP8txoQhnnlRA6V6","id":"4Nrd0CtP8txoQhnnlRA6V6","name":"Vianney","type":"artist","uri":"spotify:artist:4Nrd0CtP8txoQhnnlRA6V6"}],"available_markets":["AD","AR","AT","AU","BE","BG","BO","BR","CH","CL","CO","CR","CY","CZ","DE","DK","DO","EC","EE","ES","FI","FR","GB","GR","GT","HK","HN","HU","ID","IE","IS","IT","JP","LI","LT","LU","LV","MC","MT","MX","MY","NI","NL","NO","NZ","PA","PE","PH","PL","PT","PY","SE","SG","SK","SV","TR","TW","US","UY"],"external_urls":{"spotify":"https://open.spotify.com/album/4kn8D9C3PfapNKUtbsNsLp"},"href":"https://api.spotify.com/v1/albums/4kn8D9C3PfapNKUtbsNsLp","id":"4kn8D9C3PfapNKUtbsNsLp","images":[{"height":640,"url":"https://i.scdn.co/image/c250c6d9f4db5ca5641af9321c935bc1999d0c5e","width":640},{"height":300,"url":"https://i.scdn.co/image/bc872b03d4e9ec1c2bf2a7ee908c5162cff43a18","width":300},{"height":64,"url":"https://i.scdn.co/image/0ee4ae93b3b3a022225be832c459c4486c4a989e","width":64}],"name":"Dumbo - Single","type":"album","uri":"spotify:album:4kn8D9C3PfapNKUtbsNsLp"},{"album_type":"single","artists":[{"external_urls":{"spotify":"https://open.spotify.com/artist/4Nrd0CtP8txoQhnnlRA6V6"},"href":"https://api.spotify.com/v1/artists/4Nrd0CtP8txoQhnnlRA6V6","id":"4Nrd0CtP8txoQhnnlRA6V6","name":"Vianney","type":"artist","uri":"spotify:artist:4Nrd0CtP8txoQhnnlRA6V6"}],"available_markets":["CA"],"external_urls":{"spotify":"https://open.spotify.com/album/5nRYhESUfFjDUcWlpx7RbS"},"href":"https://api.spotify.com/v1/albums/5nRYhESUfFjDUcWlpx7RbS","id":"5nRYhESUfFjDUcWlpx7RbS","images":[{"height":640,"url":"https://i.scdn.co/image/b4fc75db830214799c5f693348cbd03200502ac0","width":640},{"height":300,"url":"https://i.scdn.co/image/904dc16a2a53b0baceb14c9da81c2eb2934dd11b","width":300},{"height":64,"url":"https://i.scdn.co/image/b02ada3709e94e3dcc9356405410f0481bbe2728","width":64}],"name":"Dumbo - Single","type":"album","uri":"spotify:album:5nRYhESUfFjDUcWlpx7RbS"},{"album_type":"single","artists":[{"external_urls":{"spotify":"https://open.spotify.com/artist/4Nrd0CtP8txoQhnnlRA6V6"},"href":"https://api.spotify.com/v1/artists/4Nrd0CtP8txoQhnnlRA6V6","id":"4Nrd0CtP8txoQhnnlRA6V6","name":"Vianney","type":"artist","uri":"spotify:artist:4Nrd0CtP8txoQhnnlRA6V6"}],"available_markets":["CA"],"external_urls":{"spotify":"https://open.spotify.com/album/2DQFGiig6bHjMq2xPG6xk9"},"href":"https://api.spotify.com/v1/albums/2DQFGiig6bHjMq2xPG6xk9","id":"2DQFGiig6bHjMq2xPG6xk9","images":[{"height":640,"url":"https://i.scdn.co/image/b4fc75db830214799c5f693348cbd03200502ac0","width":640},{"height":300,"url":"https://i.scdn.co/image/904dc16a2a53b0baceb14c9da81c2eb2934dd11b","width":300},{"height":64,"url":"https://i.scdn.co/image/b02ada3709e94e3dcc9356405410f0481bbe2728","width":64}],"name":"Tombe la neige - Single","type":"album","uri":"spotify:album:2DQFGiig6bHjMq2xPG6xk9"},{"album_type":"single","artists":[{"external_urls":{"spotify":"https://open.spotify.com/artist/4Nrd0CtP8txoQhnnlRA6V6"},"href":"https://api.spotify.com/v1/artists/4Nrd0CtP8txoQhnnlRA6V6","id":"4Nrd0CtP8txoQhnnlRA6V6","name":"Vianney","type":"artist","uri":"spotify:artist:4Nrd0CtP8txoQhnnlRA6V6"}],"available_markets":["AD","AR","AT","AU","BE","BG","BO","BR","CH","CL","CO","CR","CY","CZ","DE","DK","DO","EC","EE","ES","FI","FR","GB","GR","GT","HK","HN","HU","ID","IE","IS","IT","JP","LI","LT","LU","LV","MC","MT","MX","MY","NI","NL","NO","NZ","PA","PE","PH","PL","PT","PY","SE","SG","SK","SV","TR","TW","US","UY"],"external_urls":{"spotify":"https://open.spotify.com/album/51a4jnVs7fai1W9EqxjqRY"},"href":"https://api.spotify.com/v1/albums/51a4jnVs7fai1W9EqxjqRY","id":"51a4jnVs7fai1W9EqxjqRY","images":[{"height":640,"url":"https://i.scdn.co/image/c250c6d9f4db5ca5641af9321c935bc1999d0c5e","width":640},{"height":300,"url":"https://i.scdn.co/image/bc872b03d4e9ec1c2bf2a7ee908c5162cff43a18","width":300},{"height":64,"url":"https://i.scdn.co/image/0ee4ae93b3b3a022225be832c459c4486c4a989e","width":64}],"name":"Le fils à papa - Single","type":"album","uri":"spotify:album:51a4jnVs7fai1W9EqxjqRY"},{"album_type":"single","artists":[{"external_urls":{"spotify":"https://open.spotify.com/artist/4Nrd0CtP8txoQhnnlRA6V6"},"href":"https://api.spotify.com/v1/artists/4Nrd0CtP8txoQhnnlRA6V6","id":"4Nrd0CtP8txoQhnnlRA6V6","name":"Vianney","type":"artist","uri":"spotify:artist:4Nrd0CtP8txoQhnnlRA6V6"}],"available_markets":["CA"],"external_urls":{"spotify":"https://open.spotify.com/album/7tmECjYl9kmN0nXoMd4HIv"},"href":"https://api.spotify.com/v1/albums/7tmECjYl9kmN0nXoMd4HIv","id":"7tmECjYl9kmN0nXoMd4HIv","images":[{"height":640,"url":"https://i.scdn.co/image/b4fc75db830214799c5f693348cbd03200502ac0","width":640},{"height":300,"url":"https://i.scdn.co/image/904dc16a2a53b0baceb14c9da81c2eb2934dd11b","width":300},{"height":64,"url":"https://i.scdn.co/image/b02ada3709e94e3dcc9356405410f0481bbe2728","width":64}],"name":"Le fils à papa - Single","type":"album","uri":"spotify:album:7tmECjYl9kmN0nXoMd4HIv"},{"album_type":"single","artists":[{"external_urls":{"spotify":"https://open.spotify.com/artist/4Nrd0CtP8txoQhnnlRA6V6"},"href":"https://api.spotify.com/v1/artists/4Nrd0CtP8txoQhnnlRA6V6","id":"4Nrd0CtP8txoQhnnlRA6V6","name":"Vianney","type":"artist","uri":"spotify:artist:4Nrd0CtP8txoQhnnlRA6V6"}],"available_markets":["AD","AR","AU","BE","BG","BO","BR","CL","CO","CR","CY","CZ","DK","DO","EC","EE","ES","FI","FR","GB","GR","GT","HK","HN","HU","ID","IE","IS","IT","JP","LI","LT","LU","LV","MC","MT","MX","MY","NI","NL","NO","NZ","PA","PE","PH","PL","PT","PY","SE","SG","SK","SV","TR","TW","US","UY"],"external_urls":{"spotify":"https://open.spotify.com/album/4PjzLR7aNOp49fLvTueyB2"},"href":"https://api.spotify.com/v1/albums/4PjzLR7aNOp49fLvTueyB2","id":"4PjzLR7aNOp49fLvTueyB2","images":[{"height":640,"url":"https://i.scdn.co/image/c250c6d9f4db5ca5641af9321c935bc1999d0c5e","width":640},{"height":300,"url":"https://i.scdn.co/image/bc872b03d4e9ec1c2bf2a7ee908c5162cff43a18","width":300},{"height":64,"url":"https://i.scdn.co/image/0ee4ae93b3b3a022225be832c459c4486c4a989e","width":64}],"name":"Je m'en vais - Single","type":"album","uri":"spotify:album:4PjzLR7aNOp49fLvTueyB2"},{"album_type":"single","artists":[{"external_urls":{"spotify":"https://open.spotify.com/artist/4Nrd0CtP8txoQhnnlRA6V6"},"href":"https://api.spotify.com/v1/artists/4Nrd0CtP8txoQhnnlRA6V6","id":"4Nrd0CtP8txoQhnnlRA6V6","name":"Vianney","type":"artist","uri":"spotify:artist:4Nrd0CtP8txoQhnnlRA6V6"}],"available_markets":["CA"],"external_urls":{"spotify":"https://open.spotify.com/album/3iSNhMq7oQYtalgNicW2hv"},"href":"https://api.spotify.com/v1/albums/3iSNhMq7oQYtalgNicW2hv","id":"3iSNhMq7oQYtalgNicW2hv","images":[{"height":640,"url":"https://i.scdn.co/image/b4fc75db830214799c5f693348cbd03200502ac0","width":640},{"height":300,"url":"https://i.scdn.co/image/904dc16a2a53b0baceb14c9da81c2eb2934dd11b","width":300},{"height":64,"url":"https://i.scdn.co/image/b02ada3709e94e3dcc9356405410f0481bbe2728","width":64}],"name":"Je m'en vais - Single","type":"album","uri":"spotify:album:3iSNhMq7oQYtalgNicW2hv"},{"album_type":"single","artists":[{"external_urls":{"spotify":"https://open.spotify.com/artist/4Nrd0CtP8txoQhnnlRA6V6"},"href":"https://api.spotify.com/v1/artists/4Nrd0CtP8txoQhnnlRA6V6","id":"4Nrd0CtP8txoQhnnlRA6V6","name":"Vianney","type":"artist","uri":"spotify:artist:4Nrd0CtP8txoQhnnlRA6V6"}],"available_markets":["AD","AR","AU","BE","BG","BO","BR","CH","CL","CO","CR","CY","CZ","DK","DO","EC","EE","ES","FI","FR","GB","GR","GT","HK","HN","HU","ID","IE","IS","IT","JP","LI","LT","LU","LV","MC","MT","MX","MY","NI","NL","NO","NZ","PA","PE","PH","PL","PT","PY","SE","SG","SK","SV","TR","TW","US","UY"],"external_urls":{"spotify":"https://open.spotify.com/album/7k78KcpuUJHH4bRRQfHzlO"},"href":"https://api.spotify.com/v1/albums/7k78KcpuUJHH4bRRQfHzlO","id":"7k78KcpuUJHH4bRRQfHzlO","images":[{"height":640,"url":"https://i.scdn.co/image/c7b4375a6e08b51c7824b58e94a68fbb65fe05a1","width":640},{"height":300,"url":"https://i.scdn.co/image/00fb3a69882377d85b09e5d8396f9baaa45068cb","width":300},{"height":64,"url":"https://i.scdn.co/image/cf67927286df32edf4aed917c7e3fdb82f1428db","width":64}],"name":"Je te déteste (Acoustique) - Single","type":"album","uri":"spotify:album:7k78KcpuUJHH4bRRQfHzlO"},{"album_type":"single","artists":[{"external_urls":{"spotify":"https://open.spotify.com/artist/4Nrd0CtP8txoQhnnlRA6V6"},"href":"https://api.spotify.com/v1/artists/4Nrd0CtP8txoQhnnlRA6V6","id":"4Nrd0CtP8txoQhnnlRA6V6","name":"Vianney","type":"artist","uri":"spotify:artist:4Nrd0CtP8txoQhnnlRA6V6"}],"available_markets":["AD","AR","AU","BE","BG","BO","BR","CH","CL","CO","CR","CY","CZ","DK","DO","EC","EE","ES","FI","FR","GB","GR","GT","HK","HN","HU","ID","IE","IS","IT","JP","LI","LT","LU","LV","MC","MT","MX","MY","NI","NL","NO","NZ","PA","PE","PH","PL","PT","PY","SE","SG","SK","SV","TR","TW","US","UY"],"external_urls":{"spotify":"https://open.spotify.com/album/74lxSilf4sP7cJbHyoPBzD"},"href":"https://api.spotify.com/v1/albums/74lxSilf4sP7cJbHyoPBzD","id":"74lxSilf4sP7cJbHyoPBzD","images":[{"height":640,"url":"https://i.scdn.co/image/c7b4375a6e08b51c7824b58e94a68fbb65fe05a1","width":640},{"height":300,"url":"https://i.scdn.co/image/00fb3a69882377d85b09e5d8396f9baaa45068cb","width":300},{"height":64,"url":"https://i.scdn.co/image/cf67927286df32edf4aed917c7e3fdb82f1428db","width":64}],"name":"Man Down (Acoustique) - Single","type":"album","uri":"spotify:album:74lxSilf4sP7cJbHyoPBzD"}],"limit":20,"next":"https://api.spotify.com/v1/artists/4Nrd0CtP8txoQhnnlRA6V6/albums?offset=20&limit=20&album_type=single,album,compilation,appears_on,ep","offset":0,"previous":null,"total":40}